{
  "header": {
    "description": "Karaoke Mugen Tag File",
    "version": 1
  },
  "tag": {
    "i18n": {
      "eng": "acro"
    },
    "name": "acro",
    "repository": "justin.omez.tech",
    "tid": "2c3cd44c-b076-4340-a917-a0c8c59dafc6",
    "types": [
      "5",
      "langs"
    ]
  }
}