{
  "header": {
    "description": "Karaoke Mugen Tag File",
    "version": 1
  },
  "tag": {
    "i18n": {
      "eng": "adsa"
    },
    "name": "adsa",
    "repository": "justin.omez.tech",
    "tid": "9b85d459-d747-44ec-9dfd-14e567429cbc",
    "types": [
      "6",
      "authors"
    ]
  }
}